<svg xmlns="http://www.w3.org/2000/svg" xmlns:xlink="http://www.w3.org/1999/xlink" version="1.1" viewBox="0 0 500 500" >
    <defs>
        <style type="text/css">
            <![CDATA[
                .flexites_logo {fill: white}
            ]]>
        </style>
    </defs>
    <g id="flexites_logo_layer">
        <path class="flexites_logo" d="M313 39c91,27 157,111 157,211 0,122 -98,220 -220,220 -40,0 -77,-10 -109,-28 15,-49 25,-118 25,-135 19,22 57,10 72,0 2,-1 5,-3 9,-6 0,1 0,3 0,5 1,5 3,9 6,13 4,3 8,5 13,5 8,0 15,-3 20,-7 3,-5 9,-18 13,-22 6,6 49,55 91,27 16,-11 -9,-17 -19,-19 -25,-6 -49,-34 -52,-40 22,-27 51,-42 81,-62 8,-5 12,-11 11,-16 -1,-11 -15,-16 -24,-16 -29,1 -70,42 -85,63 -3,-7 -5,-13 -8,-19 -12,-24 -33,-28 -44,-8 -8,16 4,40 12,56l-1 1c-18,8 -46,24 -64,24 -21,0 -18,-18 -12,-30 32,-58 77,-109 113,-175 8,-16 13,-30 15,-42zm-209 376c-46,-40 -74,-99 -74,-165 0,-119 94,-216 213,-220 -37,56 -63,162 -74,194 -44,50 -79,84 -78,90 1,6 4,10 9,10 22,0 42,-45 56,-55 -10,24 -37,92 -52,146zm168 -363c-12,0 -67,123 -72,138 4,-5 87,-138 72,-138z"/>
    </g>
</svg>
